…
Set up this model and workflow. Create a regular grid for penalty and mixture with 10 levels each; mixture should range from 0 to 1. For this assignment, we’ll let penalty range from -5 to 5 (it’s log-scaled). How many total models will you be fitting when you fit these models to your folded data?

#cutting down levels to save runtimes

pokemon_spec &lt;- multinom_reg(mixture = tune(), penalty = tune()) %&gt;% set_mode(“classification”) %&gt;% set_engine(“glmnet”)

pokemon_workflow &lt;- workflow() %&gt;% add_recipe(pokemon_recipe) %&gt;% add_model(pokemon_spec)

penalty_grid &lt;- grid_regular(penalty(range = c(-5, 5)),

mixture(range = c(0, 1)), levels = 10)

penalty_grid

## # A tibble: 100 x 2

## penalty mixture

## &lt;dbl&gt; &lt;dbl&gt;

## 1 0.00001 0

## 2 0.000129 0

## 3 0.00167 0

## 4 0.0215 0

## 5 0.278 0

## 6 3.59 0

## 7 46.4 0

## 8 599. 0

## 9 7743. 0

## 10 100000 0

## # … with 90 more rows
…
